<?xml version="1.0" encoding="utf-8"?>
<!-- Generator: Adobe Illustrator 18.0.0, SVG Export Plug-In . SVG Version: 6.00 Build 0)  -->
<!DOCTYPE svg PUBLIC "-//W3C//DTD SVG 1.1//EN" "http://www.w3.org/Graphics/SVG/1.1/DTD/svg11.dtd">
<svg version="1.1" id="Layer_1" xmlns="http://www.w3.org/2000/svg" xmlns:xlink="http://www.w3.org/1999/xlink" x="0px" y="0px"
	 viewBox="0 0 100 100" enable-background="new 0 0 100 100" xml:space="preserve">
<g>
	<circle fill="#FFFFFF" cx="50.8" cy="51.3" r="24.8"/>
	<path fill="#FFFFFF" d="M95,50h-5.1C89.5,30,73,14,53,12.3V5.4c0-1.1-0.9-2-2-2s-2,0.9-2,2v6.8C28,12.6,12.1,30,11.7,50H5
		c-1.1,0-2,0.9-2,2s0.9,2,2,2h6.9C13.5,75,32,90,49,90.4v5.1c0,1.1,0.9,2,2,2s2-0.9,2-2v-5.2C73,88.7,88.2,75,89.8,54H95
		c1.1,0,2-0.9,2-2S96.2,50,95,50z M53.7,86.2c-0.4-0.6-1-0.9-1.7-0.9c-0.8,0-1.4,0.4-1.8,1.1c-19.1-0.3-34.5-15.9-34.5-35
		c0-19.3,15.7-35,35-35c19.1,0,34.7,15.4,35,34.5c-0.6,0.4-1,1-1,1.7c0,0.7,0.4,1.3,0.9,1.7C84.3,71.2,70.7,84.8,53.7,86.2z"/>
</g>
</svg>
