<?xml version="1.0" encoding="utf-8"?>
<!-- Generator: Adobe Illustrator 18.0.0, SVG Export Plug-In . SVG Version: 6.00 Build 0)  -->
<!DOCTYPE svg PUBLIC "-//W3C//DTD SVG 1.1//EN" "http://www.w3.org/Graphics/SVG/1.1/DTD/svg11.dtd">
<svg version="1.1" id="Layer_1" xmlns="http://www.w3.org/2000/svg" xmlns:xlink="http://www.w3.org/1999/xlink" x="0px" y="0px"
	 viewBox="0 0 100 100" enable-background="new 0 0 100 100" xml:space="preserve">
<path fill="#FFFFFF" d="M50.7,2.2C24.3,2.2,3,23.6,3,50c0,26.4,21.4,47.8,47.8,47.8S98.5,76.4,98.5,50C98.5,23.6,77.1,2.2,50.7,2.2z
	 M50.7,88c-21,0-38-17-38-38c0-21,17-38,38-38s38,17,38,38C88.7,71,71.7,88,50.7,88z"/>
<path id="XMLID_15_" fill="#FFFFFF" d="M38,56.9V76h11.5v-7.5c0-3.2,2.6-5.7,5.7-5.7c3.2,0,5.7,2.6,5.7,5.7V76h11.5V56.9H38z"/>
<path id="XMLID_14_" fill="#FFFFFF" d="M78.2,52.4l-46,0.2l19.9-13.9c1.8-1.3,4.2-1.3,6,0L78.2,52.4z"/>
<path id="XMLID_13_" fill="#FFFFFF" d="M26.4,31.1c-0.4,0-0.8,0-1.2,0c-0.1,0.1-0.3,0.1-0.4,0c-0.3-0.1-0.6-0.1-0.9-0.2
	c-0.2,0-0.4-0.1-0.5-0.4c0.1-0.4,0.5-0.5,0.7-0.7c0.2-0.2,0.5-0.3,0.7-0.3c0.5-0.1,0.9-0.3,1.4-0.4c0.2-0.1,0.4-0.2,0.6-0.3
	c0.1,0,0.3-0.1,0.4-0.1c0.5-0.1,0.9-0.1,1.4-0.2c0.3,0,0.7,0,1,0c0.2,0,0.5,0,0.7,0.1c0.4,0,0.7,0.1,1.1,0.2c0.2,0,0.3,0.1,0.5,0.1
	c0.3,0.1,0.6,0.2,0.9,0.3c0.2,0.1,0.3,0.1,0.5,0.2c0.3,0.1,0.5,0.3,0.8,0.4c0.1,0.1,0.3,0.2,0.4,0.3c0.2,0.2,0.4,0.3,0.7,0.5
	c-0.1-0.4-0.3-0.7-0.4-1c-0.1-0.1-0.1-0.3-0.2-0.4c-0.2-0.3-0.3-0.6-0.5-0.8c-0.1-0.2-0.2-0.3-0.3-0.5c-0.1-0.2-0.4-0.4-0.5-0.7
	c-0.1-0.1-0.2-0.3-0.3-0.4c-0.2-0.2-0.4-0.5-0.6-0.7c-0.1-0.1-0.2-0.3-0.3-0.4c-0.2-0.2-0.4-0.4-0.6-0.7c-0.1-0.1-0.2-0.3-0.3-0.4
	c-0.2-0.2-0.4-0.5-0.6-0.7c-0.1-0.1-0.2-0.2-0.1-0.4c0-0.2,0.2-0.3,0.3-0.4c0.1-0.2,0.3-0.1,0.5,0c0.3,0.1,0.6,0.1,0.9,0.2
	c0.2,0,0.4,0,0.5,0.2c0.2,0.1,0.5,0.2,0.7,0.4c0.2,0.1,0.4,0,0.4,0.3c0.2,0.2,0.4,0.4,0.7,0.6c0.2,0.1,0.3,0.2,0.3,0.3
	c0.2,0.3,0.4,0.5,0.6,0.8c0.2,0.1,0.2,0.2,0.2,0.4c0.1,0.3,0.3,0.6,0.4,0.9c0.3,0.1,0.1,0.5,0.3,0.7c0.1,0.4,0.3,0.8,0.3,1.2
	c0.1,0.2,0.1,0.5,0.2,0.7c0,0.1,0.1,0.1,0.1,0c0.3-2.5,1.1-4.7,3.4-6c0.1-0.1,0.2-0.1,0.3-0.2c0.2-0.3,0.5-0.3,0.8-0.3
	c0.4-0.1,0.9-0.2,1.3-0.3c0.3-0.2,0.6,0,1-0.1c0.3,0,0.5,0,0.8,0c0.1-0.1,0.3-0.1,0.4,0c0.4,0.1,0.7,0.1,1.1,0.2
	c0.2,0.1,0.1,0.3,0.1,0.5c-0.1,0.1-0.1,0.1-0.2,0.2c-0.2,0.2-0.5,0.3-0.7,0.4c-0.7,0.3-1.3,0.6-1.9,1c-0.4,0.2-0.8,0.5-1.1,0.8
	c-1.3,1.1-2.2,2.4-3,4c-0.1,0.3-0.2,0.5-0.3,0.8c0,0,0,0.1,0,0.2c0.2-0.1,0.3-0.3,0.5-0.4c0.7-0.6,1.4-1.1,2.3-1.5
	c0.3-0.2,0.6-0.3,1-0.3c0.4-0.1,0.8-0.2,1.3-0.3c0.1-0.1,0.3-0.2,0.5-0.1c0.4,0,0.8,0,1.2,0c0.1-0.1,0.3-0.1,0.4,0
	c0.4,0.1,0.7,0.2,1.1,0.2c0.1,0,0.2,0,0.3,0.1c0.3,0.1,0.6,0.2,0.9,0.4c0.2,0,0.3,0.1,0.4,0.2c0.3,0.2,0.5,0.3,0.8,0.5
	c0.1,0,0.2,0.1,0.3,0.2c0.3,0.2,0.5,0.4,0.8,0.6c0.2,0,0.2,0.2,0.3,0.3c0.2,0.2,0.4,0.4,0.6,0.7c0.2,0.1,0.2,0.3,0.2,0.5
	c-0.1,0.2-0.2,0.3-0.4,0.3c-0.2,0-0.3-0.1-0.5-0.1c-0.2-0.1-0.5-0.2-0.7-0.3c-0.2-0.1-0.4-0.1-0.6-0.2c-0.3-0.1-0.6-0.2-1-0.2
	c-0.2,0-0.3-0.1-0.5-0.1c-0.3,0-0.5-0.1-0.8-0.1c-0.2,0-0.4-0.1-0.6-0.1c-0.3,0-0.5,0-0.7,0c-0.5,0-0.9,0-1.4,0.1
	c-0.2,0-0.5,0.1-0.7,0.1c-0.2,0-0.3,0.1-0.5,0.1c-0.5,0-1,0.2-1.4,0.3c-0.3,0.1-0.6,0.2-0.9,0.3c-0.7,0.2-1.3,0.5-1.8,0.7
	c0.3-0.1,0.8-0.1,1.2,0c0.2,0,0.4,0,0.6,0.1c0.3,0.1,0.6,0.1,0.9,0.2c0.2,0.1,0.4,0.1,0.6,0.2c0.3,0.1,0.6,0.3,0.9,0.4
	c0.1,0.1,0.2,0.2,0.4,0.2c0.2,0.2,0.5,0.3,0.7,0.5c0.1,0.1,0.3,0.2,0.4,0.4c0.2,0.2,0.4,0.4,0.6,0.6c0.1,0.1,0.2,0.2,0.2,0.3
	c0.2,0.3,0.4,0.6,0.5,0.8c0.1,0.1,0.2,0.3,0.2,0.4c0.1,0.3,0.3,0.6,0.4,0.9c0,0.2,0.1,0.4,0.1,0.6c0,0.2-0.1,0.4-0.4,0.5
	c-0.2,0.1-0.3,0-0.4-0.1c-0.3-0.2-0.5-0.4-0.8-0.6c-0.1,0-0.3-0.1-0.4-0.2c-0.2-0.2-0.5-0.4-0.7-0.5c-0.1-0.1-0.2-0.2-0.4-0.3
	c-0.2-0.2-0.5-0.4-0.7-0.5c-0.1-0.1-0.2-0.2-0.4-0.3c-0.2-0.2-0.5-0.3-0.7-0.4c-0.1-0.1-0.3-0.2-0.4-0.3c-0.2-0.2-0.5-0.3-0.8-0.4
	c-0.1-0.1-0.3-0.1-0.4-0.2c-0.3-0.1-0.6-0.2-0.9-0.2c0,0-0.1,0-0.1,0c-0.7-0.1-0.7-0.1-0.5,0.6c0.1,0.3,0.2,0.6,0.4,1
	c0.1,0.3,0.2,0.5,0.3,0.8c0.1,0.3,0.2,0.5,0.3,0.8c0.1,0.3,0.2,0.6,0.3,0.9c0.1,0.3,0.2,0.6,0.3,0.9c0,0.2,0.1,0.4,0.1,0.5
	c0.1,0.4,0.2,0.8,0.3,1.1c0,0.2,0.1,0.4,0.1,0.5c0.1,0.4,0.1,0.8,0.3,1.2c0,0.4,0,0.8,0.1,1.2c-0.3,0.3-0.7,0.6-1,0.9
	c-0.2,0.2-0.2,0.1-0.3-0.1c-0.2-0.3,0-0.7-0.2-1c0-0.2-0.1-0.4-0.1-0.6c-0.1-0.2-0.2-0.4-0.1-0.6c-0.1-0.4-0.2-0.9-0.3-1.3
	c-0.2-0.1,0-0.4-0.2-0.6c0-0.4-0.2-0.7-0.3-1.1c-0.1-0.1-0.2-0.2-0.1-0.4c-0.1-0.4-0.2-0.8-0.4-1.2c-0.2-0.1,0-0.4-0.2-0.6
	c-0.1-0.3-0.2-0.7-0.3-1c-0.2-0.1-0.1-0.3-0.2-0.5c-0.1-0.4-0.2-0.7-0.4-1c-0.2-0.2-0.2-0.1-0.3,0.1c-0.9,1.4-1.8,2.7-3,3.8
	c-0.1,0.1-0.3,0.3-0.5,0.3c-0.6,0.5-1.3,1.1-1.9,1.6c-0.2,0.1-0.3,0.3-0.6,0.2c-0.1,0-0.2-0.1-0.1-0.2c0.2-1,0.6-1.9,1-2.8
	c0.2-0.7,0.6-1.3,1.1-1.8c0.7-0.8,1.3-1.6,2.2-2c-0.2,0-0.5,0.1-0.7,0.2c-0.3,0.2-0.6,0-0.9,0.1c-0.4,0.1-0.9,0.2-1.3,0.4
	c-0.2,0.2-0.5,0.3-0.8,0.3c-0.6,0.2-1.1,0.4-1.6,0.6c-0.2,0.3-0.6,0.3-0.9,0.4c-0.6,0.2-1.1,0.4-1.6,0.7c-0.2,0.2-0.5,0.4-0.8,0.4
	c-0.5,0.1-0.6,0-0.4-0.7c0-0.6,0.3-1,0.6-1.4c0.3-0.5,0.6-1,1-1.4c0.3-0.4,0.7-0.7,1.1-1c0.5-0.3,1.1-0.5,1.6-0.6
	c0.2,0,0.3-0.1,0.5-0.1c0.3,0,0.6-0.1,1-0.1c0.3,0.1,0.5,0,0.7,0c0.6,0,1.1,0.1,1.7,0.2c-0.4-0.3-0.7-0.5-1-0.7
	c-0.1-0.1-0.3-0.2-0.5-0.2c-0.3-0.1-0.5-0.3-0.8-0.4c-0.2-0.1-0.4-0.1-0.6-0.2c-0.3-0.1-0.6-0.1-0.8-0.2c-0.2,0-0.4,0-0.6-0.2
	c-0.4-0.1-0.8-0.1-1.2,0c-0.1,0.1-0.3,0.2-0.5,0l0,0c-0.5,0-1,0.1-1.4,0.2C26.6,31.2,26.5,31.2,26.4,31.1z"/>
</svg>
